R Notebook
…
movies_genre = data_cleaned_a %>% select(movie_title, budget,imdb_score,title_year, all_genres=genres)
for (genre in genres$genre) {
  movies_genre = movies_genre %>% mutate(!!genre := as.numeric(grepl(genre, all_genres))) 
}
#write.csv(movies_genre, "movies_genre.csv")

movies_genre

## # A tibble: 3,345 x 15
##    movie_title budget imdb_score title_year all_genres Action Adventure Comedy
##    <chr>        <dbl>      <dbl>      <int> <fct>       <dbl>     <dbl>  <dbl>
##  1 Avatar     2.76e8        7.9       2009 Action|Ad~      1         1      0
##  2 Pirates of~ 3.74e8        7.1       2007 Action|Ad~      1         1      0
##  3 The Dark K~ 2.79e8        8.5       2012 Action|Th~      1         0      0
##  4 John Carte~ 2.94e8        6.6       2012 Action|Ad~      1         1      0
##  5 Spider-Man~ 3.21e8        6.2       2007 Action|Ad~      1         1      0
##  6 Tangled    3.04e8        7.8       2010 Adventure~      0         1      1
##  7 Harry Pott~ 2.92e8        7.5       2009 Adventure~      0         1      0
##  8 Batman v S~ 2.65e8        6.9       2016 Action|Ad~      1         1      0
##  9 Superman R~ 2.69e8        6.1       2006 Action|Ad~      1         1      0
## 10 Quantum of~ 2.42e8        6.7       2008 Action|Ad~      1         1      0
## # ... with 3,335 more rows, and 7 more variables: Crime <dbl>, Drama <dbl>,
## #   Fantasy <dbl>, Horror <dbl>, Romance <dbl>, `Sci-Fi` <dbl>, Thriller <dbl>
…
